%YAML 1.1
%TAG !u! tag:unity3d.com,2011:
--- !u!1045 &1
EditorBuildSettings:
  m_ObjectHideFlags: 0
  serializedVersion: 2
  m_Scenes:
  - enabled: 1
    path: Assets/Scenes/WestScene.unity
    guid: 8ed2057d4facf024d8f95817ae12f4cb
  - enabled: 1
    path: Assets/Scenes/TestScene.unity
    guid: 6d0f2ab2c20ba1d4fa1bcfdfca7a3e69
  - enabled: 1
    path: Assets/Scenes/TownScene.unity
    guid: fa8f1f635d5e81048ae1dda8d4a3fd05
  m_configObjects: {}
